Tutorials for DS course materials - Principal Component Analysis with Boston Housing Data
…
Interpret the PCA Results

PCA transforms the original variables into new, uncorrelated variables called principal components. We’ll examine the contribution of each original variable to the principal components by looking at the loadings.

# Extract the PCA loadings
pca_loadings = pca_prep %>% 
  tidy(1)

# View the PCA loadings
pca_loadings

# A tibble: 26 × 4
   terms statistic    value id             
   <chr> <chr>        <dbl> <chr>          
 1 crim  mean        3.61   normalize_6lxrz
 2 zn    mean       11.4    normalize_6lxrz
 3 indus mean       11.1    normalize_6lxrz
 4 chas  mean        0.0692 normalize_6lxrz
 5 nox   mean        0.555  normalize_6lxrz
 6 rm    mean        6.28   normalize_6lxrz
 7 age   mean       68.6    normalize_6lxrz
 8 dis   mean        3.80   normalize_6lxrz
 9 rad   mean        9.55   normalize_6lxrz
10 tax   mean      408.     normalize_6lxrz
# ℹ 16 more rows
…
